<?xml version="1.0" encoding="UTF-8" standalone="no"?>
<!-- Generator: Adobe Illustrator 22.0.1, SVG Export Plug-In . SVG Version: 6.00 Build 0)  -->
<svg xmlns:dc="http://purl.org/dc/elements/1.1/" xmlns:cc="http://creativecommons.org/ns#" xmlns:rdf="http://www.w3.org/1999/02/22-rdf-syntax-ns#" xmlns:svg="http://www.w3.org/2000/svg" xmlns="http://www.w3.org/2000/svg" xmlns:sodipodi="http://sodipodi.sourceforge.net/DTD/sodipodi-0.dtd" xmlns:inkscape="http://www.inkscape.org/namespaces/inkscape" version="1.1" id="Layer_1" x="0px" y="0px" viewBox="0 0 400.00001 487.99998" xml:space="preserve" width="400" height="488">
  <metadata id="metadata72"/>
  <defs id="defs70"/>
  <style type="text/css" id="style2">
	.st0{fill:#292961;}
	.st1{fill:url(#SVGID_1_);}
	.st2{fill:url(#SVGID_2_);}
	.st3{fill:url(#SVGID_3_);}
	.st4{fill:url(#SVGID_4_);}
	.st5{fill:url(#SVGID_5_);}
	.st6{fill:url(#SVGID_6_);}
	.st7{fill:url(#SVGID_7_);}
	.st8{fill:url(#SVGID_8_);}
	.st9{fill:url(#SVGID_9_);}
</style>
  <g id="g71" transform="matrix(2.3110268,0,0,2.3110268,9.8644072,-727.77318)">
    <g transform="translate(12.639008,330.64785)" id="g29">
      <linearGradient id="SVGID_1_" gradientUnits="userSpaceOnUse" x1="44.527802" y1="68.684601" x2="64.688004" y2="100.7762">
        <stop offset="0" style="stop-color:#FFFFFF;stop-opacity:0" id="stop4"/>
        <stop offset="1" style="stop-color:#292961;stop-opacity:0.3" id="stop6"/>
      </linearGradient>
      <path class="st1" d="m 42.4,60.2 28.3,16.7 -0.4,30.7 c 0,0 -15.5,-6.5 -16.4,-6.8 C 53,100.5 39.5,94.3 39.5,94.3 L 40,63.4" id="path9" style="fill:url(#SVGID_1_)"/>
      <path class="st0" d="M 99.9,56.8 98.5,56 v 0 L 71.4,40.4 v 0 L 70,39.6 c -0.4,-0.2 -0.8,-0.2 -1.2,0 L 39.1,56.8 c -0.4,0.2 -0.6,0.6 -0.6,1 v 34.4 c 0,0.4 0.2,0.8 0.6,1 l 29.8,17.2 c 0.2,0.1 0.4,0.2 0.6,0.2 0.2,0 0.4,-0.1 0.6,-0.2 l 1.4,-0.8 v 0 l 28,-16.2 c 0.6,-0.3 1,-1 1,-1.7 V 59.4 57.8 c 0,-0.4 -0.3,-0.8 -0.6,-1 z M 42.4,90.6 v -29 l 18.7,10.8 v 0 l 8.3,4.8 v 28.9 z M 69.5,72.8 44.3,58.3 69.4,43.8 94.5,58.3 Z" id="path11" style="fill:#292961"/>
      <linearGradient id="SVGID_2_" gradientUnits="userSpaceOnUse" x1="47.369099" y1="57.337799" x2="88.649597" y2="57.337799">
        <stop offset="0" style="stop-color:#FFFFFF;stop-opacity:0" id="stop13"/>
        <stop offset="1" style="stop-color:#292961;stop-opacity:0.3" id="stop15"/>
      </linearGradient>
      <path class="st2" d="M 69.5,40.3 96.8,57 69.5,74.4 42.4,57.4 c 0,0 8.1,-12.5 11.6,-11.9" id="path18" style="fill:url(#SVGID_2_)"/>
      <path class="st0" d="M 119.6,44.9 70.5,16.6 c -0.6,-0.4 -1.3,-0.4 -2,0 L 19.4,44.9 c -0.6,0.3 -1,1 -1,1.7 v 56.7 c 0,0.7 0.4,1.3 1,1.7 l 49.1,28.4 c 0.3,0.2 0.6,0.3 1,0.3 0.3,0 0.7,-0.1 1,-0.3 L 119.6,105 c 0.6,-0.3 1,-1 1,-1.7 V 46.6 c 0,-0.7 -0.4,-1.3 -1,-1.7 z M 71.4,21.7 114.7,46.7 98.5,56 71.4,40.4 Z M 69.5,106.3 42.4,90.6 v -29 l 25.1,14.5 c 0.6,0.3 1.3,0.5 1.9,0.5 v 29.7 z M 69.5,72.8 44.3,58.3 69.4,43.8 94.5,58.3 Z m 47.2,29.4 -45.2,26.1 v -18.7 l 28,-16.2 c 0.6,-0.3 1,-1 1,-1.7 V 59.4 l 16.2,-9.3 z" id="path20" style="fill:#292961"/>
      <linearGradient id="SVGID_3_" gradientUnits="userSpaceOnUse" x1="67.897202" y1="85.206703" x2="86.579498" y2="98.657997">
        <stop offset="0" style="stop-color:#FFFFFF;stop-opacity:0" id="stop22"/>
        <stop offset="1" style="stop-color:#FFFFFF;stop-opacity:0.3" id="stop24"/>
      </linearGradient>
      <path class="st3" d="m 73,75.3 v 28.3 c 0,0.5 0.5,0.7 0.9,0.5 L 96.8,90.9 Z" id="path27" style="fill:url(#SVGID_3_)"/>
    </g>
    <g transform="matrix(0.31948273,0,0,0.31948273,-46.772272,453.71951)" id="g63">
      <path class="st0" d="m 164.6,68.6 h -10.8 v 26.2 h -7.4 V 60.2 c 0,-2.3 1.1,-5.6 3.2,-7 2.2,-1.4 4.9,-2.1 8.1,-2.1 h 6.9 v 6.5 h -5.3 c -1.7,0 -3,0.4 -4,1.2 -1,0.8 -1.6,1.7 -1.6,2.9 v 1.4 h 10.9 z" id="path31" style="fill:#292961"/>
      <path class="st0" d="m 187.8,68.1 c -5.7,0 -9,0.1 -10,0.3 -2,0.6 -2.9,2 -2.9,4.2 v 21.9 h -7.7 V 71.3 c 0,-5.7 4,-8.5 12,-8.5 h 8.6 z" id="path33" style="fill:#292961"/>
      <path class="st0" d="M 227.1,75.6 198.7,84 v 1.1 c 0,1.7 0.6,2.9 1.9,3.6 0.9,0.4 2.4,0.7 4.5,0.7 H 227 v 5.4 h -23.3 c -4,0 -7,-0.6 -8.9,-1.8 -2.4,-1.4 -3.6,-3.7 -3.6,-6.8 v -15 c 0,-5.4 3.9,-8 11.8,-8 h 13 c 7.3,0 11,2.8 11,8.5 v 3.9 z m -7.6,-3 v -0.5 c 0,-2.4 -2,-3.6 -5.9,-3.6 h -8.2 c -4.5,0 -6.8,1.4 -6.8,4.1 v 6.2 z" id="path35" style="fill:#292961"/>
      <path class="st0" d="M 266.4,75.6 238.1,84 v 1.1 c 0,1.7 0.6,2.9 1.9,3.6 0.9,0.4 2.4,0.7 4.5,0.7 h 21.9 v 5.4 h -23.3 c -4,0 -7,-0.6 -8.9,-1.8 -2.4,-1.4 -3.6,-3.7 -3.6,-6.8 v -15 c 0,-5.4 3.9,-8 11.8,-8 h 13 c 7.3,0 11,2.8 11,8.5 z m -7.6,-3 v -0.5 c 0,-2.4 -2,-3.6 -5.9,-3.6 h -8.2 c -4.5,0 -6.8,1.4 -6.8,4.1 v 6.2 z" id="path37" style="fill:#292961"/>
      <path class="st0" d="m 306.2,52.7 v 33.2 c 0,3.2 -1.2,5.4 -3.5,6.8 -2.3,1.4 -5.1,2.1 -8.5,2.1 h -13 c -7.5,0 -11.3,-2.9 -11.3,-8.6 V 71 c 0,-2.6 1,-4.6 3,-6.2 2,-1.5 4.7,-2.3 8.2,-2.3 h 17.7 v -9.9 h 7.4 z m -7.4,32.4 V 69.4 c 0,-0.9 -0.6,-1.3 -1.8,-1.3 h -13.6 c -4,0 -6,1.5 -6,4.5 v 12.2 c 0,1.6 0.4,2.7 1.1,3.3 1,0.8 2.7,1.2 4.9,1.2 h 9 c 4.2,0 6.4,-1.4 6.4,-4.2 z" id="path39" style="fill:#292961"/>
      <path class="st0" d="M 346.8,75.6 318.5,84 v 1.1 c 0,1.7 0.6,2.9 1.9,3.6 0.9,0.4 2.4,0.7 4.5,0.7 h 21.9 v 5.4 h -23.3 c -4,0 -7,-0.6 -8.9,-1.8 -2.4,-1.4 -3.6,-3.7 -3.6,-6.8 v -15 c 0,-5.4 3.9,-8 11.8,-8 h 13 c 7.3,0 11,2.8 11,8.5 z m -7.6,-3 v -0.5 c 0,-2.4 -2,-3.6 -5.9,-3.6 h -8.2 c -4.5,0 -6.8,1.4 -6.8,4.1 v 6.2 z" id="path41" style="fill:#292961"/>
      <path class="st0" d="m 381.7,68.6 h -19.6 c -1.8,0 -3.1,0.2 -4,0.6 -1.2,0.6 -1.8,1.3 -1.8,2.3 v 1.3 c 0,2.2 2,3.3 5.9,3.3 h 9.7 c 2.8,0 5.1,0.7 6.9,2.1 1.8,1.4 2.7,3.1 2.7,5.3 v 3.9 c 0,2 -0.9,3.8 -2.7,5.3 -1.1,1 -2.2,1.6 -3.4,1.8 -1,0.2 -2.4,0.3 -4.3,0.3 H 349 v -5.4 h 20.1 c 2.1,0 3.5,-0.4 4.2,-1.2 0.5,-0.6 0.8,-1.7 0.8,-3.4 0,-2.2 -1.6,-3.2 -4.8,-3.2 h -9.1 c -3.1,0 -5.6,-0.6 -7.7,-1.8 -2.2,-1.3 -3.4,-3.1 -3.4,-5.3 v -4.2 c 0,-2.4 1.3,-4.2 3.9,-5.7 1.6,-0.9 4,-1.4 7.2,-1.4 h 21.5 z" id="path43" style="fill:#292961"/>
      <path class="st0" d="m 393.6,94.8 h -7.4 V 52.6 h 7.4 z m 26.6,0 h -9.1 l -15.8,-14 c -0.9,-0.7 -1.3,-1.4 -1.3,-2.1 0,-0.7 0.5,-1.5 1.5,-2.4 l 14.9,-13 h 8.9 L 402,78.7 Z" id="path45" style="fill:#292961"/>
      <path class="st0" d="m 437.8,68.9 h -9.4 V 94.8 H 421 V 52.6 h 7.4 v 11 h 9.4 z" id="path47" style="fill:#292961"/>
      <path class="st0" d="m 477,86.9 c 0,2.7 -1.2,4.8 -3.6,6.2 -1.7,1.1 -4.3,1.6 -7.7,1.6 h -12.8 c -3.9,0 -6.9,-0.7 -8.8,-2.1 -1.9,-1.4 -2.9,-3.3 -2.9,-5.7 V 71.2 c 0,-2.7 1.2,-4.9 3.7,-6.4 1.8,-1.1 4.5,-1.6 8,-1.6 h 12.8 c 3.6,0 6.2,0.5 7.8,1.6 2.4,1.4 3.5,3.6 3.5,6.4 z m -7.4,-1.4 V 72.6 c 0,-1.5 -0.6,-2.5 -1.7,-3.2 -0.9,-0.6 -2.4,-1 -4.3,-1 h -8.8 c -2,0 -3.5,0.3 -4.5,1 -1.2,0.7 -1.8,1.7 -1.8,3.2 v 12.7 c 0,1.4 0.6,2.4 1.8,3.1 0.9,0.6 2.2,0.9 4,0.9 h 9.8 c 1.7,0 2.9,-0.3 3.8,-0.9 1.1,-0.6 1.7,-1.6 1.7,-2.9 z" id="path49" style="fill:#292961"/>
      <path class="st0" d="m 517.9,86.9 c 0,2.3 -1,4.2 -3,5.6 -2,1.5 -4.6,2.2 -7.8,2.2 h -17.6 v 12.6 h -7.4 V 71.4 c 0,-5.6 3.6,-8.5 10.9,-8.5 h 13.2 c 7.8,0 11.6,2.8 11.6,8.3 v 15.7 z m -7.3,-1.7 v -13 c 0,-2.6 -2,-3.9 -5.9,-3.9 h -9 c -4.1,0 -6.1,1.4 -6.1,4.3 V 88 c 0,0.9 0.7,1.4 2,1.4 h 13.6 c 3.6,-0.1 5.4,-1.4 5.4,-4.2 z" id="path51" style="fill:#292961"/>
      <path class="st0" d="m 544.1,81.2 h -20.7 v -5.9 h 20.7 z" id="path53" style="fill:#292961"/>
      <path class="st0" d="m 581,68.6 h -19.6 c -1.8,0 -3.1,0.2 -4,0.6 -1.2,0.6 -1.8,1.3 -1.8,2.3 v 1.3 c 0,2.2 2,3.3 5.9,3.3 h 9.7 c 2.8,0 5.1,0.7 6.9,2.1 1.8,1.4 2.7,3.1 2.7,5.3 v 3.9 c 0,2 -0.9,3.8 -2.7,5.3 -1.1,1 -2.2,1.6 -3.4,1.8 -1,0.2 -2.4,0.3 -4.3,0.3 h -22.1 v -5.4 h 20.1 c 2.1,0 3.5,-0.4 4.2,-1.2 0.5,-0.6 0.8,-1.7 0.8,-3.4 0,-2.2 -1.6,-3.2 -4.8,-3.2 h -9.1 c -3.1,0 -5.6,-0.6 -7.7,-1.8 -2.2,-1.3 -3.4,-3.1 -3.4,-5.3 v -4.2 c 0,-2.4 1.3,-4.2 3.9,-5.7 1.6,-0.9 4,-1.4 7.2,-1.4 H 581 Z" id="path55" style="fill:#292961"/>
      <path class="st0" d="m 621.8,52.7 v 33.2 c 0,3.2 -1.2,5.4 -3.5,6.8 -2.3,1.4 -5.1,2.1 -8.5,2.1 h -13 c -7.5,0 -11.3,-2.9 -11.3,-8.6 V 71 c 0,-2.6 1,-4.6 3,-6.2 2,-1.5 4.7,-2.3 8.2,-2.3 h 17.7 v -9.9 h 7.4 z m -7.4,32.4 V 69.4 c 0,-0.9 -0.6,-1.3 -1.8,-1.3 H 599 c -4,0 -6,1.5 -6,4.5 v 12.2 c 0,1.6 0.4,2.7 1.1,3.3 1,0.8 2.7,1.2 4.9,1.2 h 9 c 4.2,0 6.4,-1.4 6.4,-4.2 z" id="path57" style="fill:#292961"/>
      <path class="st0" d="m 634,94.8 h -7.4 V 52.6 h 7.4 z m 26.6,0 h -9.1 l -15.8,-14 c -0.9,-0.7 -1.3,-1.4 -1.3,-2.1 0,-0.7 0.5,-1.5 1.5,-2.4 l 14.9,-13 h 8.9 l -17.3,15.4 z" id="path59" style="fill:#292961"/>
      <rect x="410.39999" y="63.200001" class="st0" width="27.4" height="5.6999998" id="rect61" style="fill:#292961"/>
    </g>
  </g>
</svg>
